EDA Practice
…
This warning means that, for the columns we specified in the inner join, values in Row 79 of the math data appear more than once in the por frame, and vice versa (values in Row 79 of the por data appear more than once in the math data. As a result, the inner join creates all possible combinations for those matches.

Use an inner_join() on all variables other than G1, G2, G3, paid, and absences. Use this form of the combined data in further exercises.

combined <- inner_join(math, por, by = c("school", "sex", "age", "address", "famsize", "Pstatus", "Medu", "Fedu", "Mjob", "Fjob", "reason", "guardian", "traveltime", "studytime", "failures", "schoolsup", "famsup", "activities", "nursery", "higher", "internet", "romantic", "famrel", "freetime", "goout", "Dalc", "Walc", "health"))

This code performs an inner join between the math and por data frames using a comprehensive set of columns as keys. This will keep only the rows where all these columns match in both data frames. If there are columns in math and por with the same name that are not included in the by argument, the resulting combined data frame will have those columns with .x and .y suffixes to distinguish them (absences, paid, G1, G2 and G3).

Next, for the math data, Portuguese, and combined data, choose four categorical variables you are interested in and convert those into factor variables in each tibble (use the same four variables in each). Use the mutate() function to accomplish this.

I chose guardian, reason, Mjob and Fjob

math |> mutate(guardian = as_factor(guardian), reason = as_factor(reason), Mjob = as_factor(Mjob), Fjob = as_factor(Fjob))

# A tibble: 395 × 33
   school sex     age address famsize Pstatus  Medu  Fedu Mjob     Fjob   reason
   <chr>  <chr> <dbl> <chr>   <chr>   <chr>   <dbl> <dbl> <fct>    <fct>  <fct> 
 1 GP     F        18 U       GT3     A           4     4 at_home  teach… course
 2 GP     F        17 U       GT3     T           1     1 at_home  other  course
 3 GP     F        15 U       LE3     T           1     1 at_home  other  other 
 4 GP     F        15 U       GT3     T           4     2 health   servi… home  
 5 GP     F        16 U       GT3     T           3     3 other    other  home  
 6 GP     M        16 U       LE3     T           4     3 services other  reput…
 7 GP     M        16 U       LE3     T           2     2 other    other  home  
 8 GP     F        17 U       GT3     A           4     4 other    teach… home  
 9 GP     M        15 U       LE3     A           3     2 services other  home  
10 GP     M        15 U       GT3     T           3     4 other    other  home  
# ℹ 385 more rows
# ℹ 22 more variables: guardian <fct>, traveltime <dbl>, studytime <dbl>,
#   failures <dbl>, schoolsup <chr>, famsup <chr>, paid <chr>,
#   activities <chr>, nursery <chr>, higher <chr>, internet <chr>,
#   romantic <chr>, famrel <dbl>, freetime <dbl>, goout <dbl>, Dalc <dbl>,
#   Walc <dbl>, health <dbl>, absences <dbl>, G1 <dbl>, G2 <dbl>, G3 <dbl>

por |> mutate(guardian = as_factor(guardian), reason = as_factor(reason), Mjob = as_factor(Mjob), Fjob = as_factor(Fjob))

# A tibble: 649 × 33
   school sex     age address famsize Pstatus  Medu  Fedu Mjob     Fjob   reason
   <chr>  <chr> <dbl> <chr>   <chr>   <chr>   <dbl> <dbl> <fct>    <fct>  <fct> 
 1 GP     F        18 U       GT3     A           4     4 at_home  teach… course
 2 GP     F        17 U       GT3     T           1     1 at_home  other  course
 3 GP     F        15 U       LE3     T           1     1 at_home  other  other 
 4 GP     F        15 U       GT3     T           4     2 health   servi… home  
 5 GP     F        16 U       GT3     T           3     3 other    other  home  
 6 GP     M        16 U       LE3     T           4     3 services other  reput…
 7 GP     M        16 U       LE3     T           2     2 other    other  home  
 8 GP     F        17 U       GT3     A           4     4 other    teach… home  
 9 GP     M        15 U       LE3     A           3     2 services other  home  
10 GP     M        15 U       GT3     T           3     4 other    other  home  
# ℹ 639 more rows
# ℹ 22 more variables: guardian <fct>, traveltime <dbl>, studytime <dbl>,
#   failures <dbl>, schoolsup <chr>, famsup <chr>, paid <chr>,
#   activities <chr>, nursery <chr>, higher <chr>, internet <chr>,
#   romantic <chr>, famrel <dbl>, freetime <dbl>, goout <dbl>, Dalc <dbl>,
#   Walc <dbl>, health <dbl>, absences <dbl>, G1 <dbl>, G2 <dbl>, G3 <dbl>
…
